module hello

go 1.17

replace github.com/hyperledger/aries-framework-go => ./aries-framework-go

require (
	github.com/davecgh/go-spew v1.1.1
	github.com/hyperledger/aries-framework-go v0.0.0-00010101000000-000000000000
	google.golang.org/protobuf v1.30.0
)

require (
	github.com/btcsuite/btcd v0.22.0-beta // indirect
	github.com/btcsuite/btcutil v1.0.3-0.20201208143702-a53e38424cce // indirect
	github.com/go-jose/go-jose/v3 v3.0.1-0.20221117193127-916db76e8214 // indirect
	github.com/google/uuid v1.3.0 // indirect
	github.com/hyperledger/aries-framework-go/spi v0.0.0-20221025204933-b807371b6f1e // indirect
	github.com/kilic/bls12-381 v0.1.1-0.20210503002446-7b7597926c69 // indirect
	github.com/kr/text v0.2.0 // indirect
	github.com/mr-tron/base58 v1.2.0 // indirect
	github.com/multiformats/go-base32 v0.1.0 // indirect
	github.com/multiformats/go-base36 v0.1.0 // indirect
	github.com/multiformats/go-multibase v0.1.1 // indirect
	github.com/piprate/json-gold v0.4.2 // indirect
	github.com/pmezard/go-difflib v1.0.0 // indirect
	github.com/pquerna/cachecontrol v0.1.0 // indirect
	github.com/stretchr/testify v1.8.1 // indirect
	github.com/teserakt-io/golang-ed25519 v0.0.0-20210104091850-3888c087a4c8 // indirect
	github.com/xeipuuv/gojsonpointer v0.0.0-20190905194746-02993c407bfb // indirect
	github.com/xeipuuv/gojsonreference v0.0.0-20180127040603-bd5ef7bd5415 // indirect
	github.com/xeipuuv/gojsonschema v1.2.0 // indirect
	golang.org/x/crypto v0.1.0 // indirect
	golang.org/x/sys v0.1.0 // indirect
	gopkg.in/yaml.v3 v3.0.1 // indirect
)
